21/01/2021 - 11:31:19 - AutomaticDisconnect started a new log file.

21/01/2021 - 11:31:37 - The system was opened

21/01/2021 - 11:31:37 - RF indicator was opened

21/01/2021 - 11:31:38 - The system was in download mode. The system was not closed.

21/01/2021 - 11:32:58 - download finished. is took 0 hours, 1 minutes and 20 seconds

21/01/2021 - 11:32:59 - Showing closing messagebox.

21/01/2021 - 11:33:01 - User clicked Ok on messagebox.

21/01/2021 - 11:33:01 - AutomaticDisconnect started trying closing the Indigma Rf testing by sending the F10 key.

21/01/2021 - 11:33:05 - AutomaticDisconnect closed RF testing.

21/01/2021 - 12:09:24 - AutomaticDisconnect started a new log file.

21/01/2021 - 12:09:36 - The system was opened

21/01/2021 - 12:09:36 - RF indicator was opened

21/01/2021 - 12:09:46 - Showing closing messagebox.

21/01/2021 - 12:09:48 - User clicked cancle on messagebox.

21/01/2021 - 12:09:57 - Showing closing messagebox.

21/01/2021 - 12:09:59 - User clicked cancle on messagebox.

21/01/2021 - 12:10:14 - Showing closing messagebox.

21/01/2021 - 12:10:21 - User clicked cancle on messagebox.

21/01/2021 - 12:40:36 - AutomaticDisconnect started a new log file.

21/01/2021 - 12:40:36 - The system was opened

21/01/2021 - 12:40:36 - RF indicator was opened

21/01/2021 - 12:41:18 - AutomaticDisconnect started a new log file.

21/01/2021 - 12:41:18 - The system was opened

21/01/2021 - 12:41:18 - RF indicator was opened

21/01/2021 - 12:41:27 - Showing closing messagebox.

21/01/2021 - 12:41:30 - User clicked cancle on messagebox.

21/01/2021 - 12:41:39 - Showing closing messagebox.

21/01/2021 - 12:41:42 - User clicked cancle on messagebox.

21/01/2021 - 12:41:51 - Showing closing messagebox.

21/01/2021 - 12:41:53 - User clicked cancle on messagebox.

21/01/2021 - 12:42:09 - Showing closing messagebox.

21/01/2021 - 12:42:11 - User clicked cancle on messagebox.

21/01/2021 - 12:42:37 - Showing closing messagebox.

21/01/2021 - 12:42:39 - User clicked cancle on messagebox.

21/01/2021 - 12:43:01 - AutomaticDisconnect started a new log file.

21/01/2021 - 12:43:01 - The system was opened

21/01/2021 - 12:43:01 - RF indicator was opened

21/01/2021 - 12:43:09 - Showing closing messagebox.

21/01/2021 - 12:43:11 - User clicked cancle on messagebox.

21/01/2021 - 13:09:53 - AutomaticDisconnect started a new log file.

21/01/2021 - 13:09:53 - The system was opened

21/01/2021 - 13:09:53 - RF indicator was opened

21/01/2021 - 13:09:54 - Showing closing messagebox.

21/01/2021 - 13:09:55 - User clicked cancle on messagebox.

21/01/2021 - 13:09:56 - Showing closing messagebox.

21/01/2021 - 13:09:57 - User clicked cancle on messagebox.

21/01/2021 - 13:09:57 - Showing closing messagebox.

21/01/2021 - 13:09:59 - User clicked cancle on messagebox.

21/01/2021 - 13:10:19 - The system was in download mode. The system was not closed.

21/01/2021 - 13:11:02 - download finished. is took 0 hours, 2 minutes and 0 seconds

21/01/2021 - 13:12:15 - AutomaticDisconnect started a new log file.

21/01/2021 - 13:12:15 - The system was opened

21/01/2021 - 13:12:15 - RF indicator was opened

21/01/2021 - 13:12:15 - Showing closing messagebox.

21/01/2021 - 13:12:18 - User clicked cancle on messagebox.

21/01/2021 - 13:12:18 - Showing closing messagebox.

21/01/2021 - 13:12:19 - User clicked cancle on messagebox.

21/01/2021 - 13:12:20 - Showing closing messagebox.

21/01/2021 - 13:12:21 - User clicked cancle on messagebox.

21/01/2021 - 13:12:30 - The system was in download mode. The system was not closed.

21/01/2021 - 13:13:07 - download finished. is took 0 hours, 2 minutes and 0 seconds

21/01/2021 - 13:13:07 - Showing closing messagebox.

21/01/2021 - 13:13:10 - User clicked Ok on messagebox.

21/01/2021 - 13:13:10 - AutomaticDisconnect started trying closing the Indigma Rf testing by sending the F10 key.

21/01/2021 - 13:13:11 - AutomaticDisconnect closed RF testing.

21/01/2021 - 13:15:27 - AutomaticDisconnect started a new log file.

21/01/2021 - 13:16:12 - The system was opened

21/01/2021 - 13:16:12 - RF indicator was opened

21/01/2021 - 13:16:13 - Showing closing messagebox.

21/01/2021 - 13:16:15 - User clicked cancle on messagebox.

21/01/2021 - 13:16:16 - Showing closing messagebox.

21/01/2021 - 13:16:17 - User clicked cancle on messagebox.

21/01/2021 - 13:16:17 - Showing closing messagebox.

21/01/2021 - 13:16:19 - User clicked cancle on messagebox.

21/01/2021 - 13:16:24 - The system was in download mode. The system was not closed.

21/01/2021 - 13:17:02 - download finished. is took 0 hours, 2 minutes and 0 seconds

21/01/2021 - 13:17:02 - Showing closing messagebox.

21/01/2021 - 13:17:07 - User clicked cancle on messagebox.

21/01/2021 - 13:17:08 - Showing closing messagebox.

21/01/2021 - 13:17:09 - User clicked cancle on messagebox.

21/01/2021 - 13:17:10 - Showing closing messagebox.

21/01/2021 - 13:17:17 - User clicked cancle on messagebox.

21/01/2021 - 13:17:18 - Showing closing messagebox.

21/01/2021 - 13:17:35 - AutomaticDisconnect started a new log file.

21/01/2021 - 13:17:41 - The system was opened

21/01/2021 - 13:17:41 - RF indicator was opened

21/01/2021 - 13:17:43 - Showing closing messagebox.

21/01/2021 - 13:17:45 - User clicked cancle on messagebox.

21/01/2021 - 13:17:48 - Showing closing messagebox.

21/01/2021 - 13:17:53 - User clicked cancle on messagebox.

21/01/2021 - 13:17:56 - Showing closing messagebox.

21/01/2021 - 13:17:59 - User clicked cancle on messagebox.

21/01/2021 - 13:18:05 - The system was in download mode. The system was not closed.

21/01/2021 - 13:18:52 - download finished. is took 0 hours, 2 minutes and 0 seconds

21/01/2021 - 13:18:53 - Showing closing messagebox.

21/01/2021 - 13:18:56 - User clicked Ok on messagebox.

21/01/2021 - 13:18:56 - AutomaticDisconnect started trying closing the Indigma Rf testing by sending the F10 key.

21/01/2021 - 13:19:00 - AutomaticDisconnect closed RF testing.

21/01/2021 - 13:19:56 - The system was opened

21/01/2021 - 13:19:56 - RF indicator was opened

21/01/2021 - 13:19:58 - Showing closing messagebox.

21/01/2021 - 13:20:09 - User clicked cancle on messagebox.

21/01/2021 - 13:22:38 - AutomaticDisconnect started a new log file.

21/01/2021 - 13:22:43 - The system was opened

21/01/2021 - 13:22:43 - RF indicator was opened

21/01/2021 - 13:22:45 - Showing closing messagebox.

21/01/2021 - 13:22:48 - User clicked cancle on messagebox.

21/01/2021 - 13:23:05 - AutomaticDisconnect started a new log file.

21/01/2021 - 13:23:07 - The system was opened

21/01/2021 - 13:23:07 - RF indicator was opened

21/01/2021 - 13:23:26 - The system was in download mode. The system was not closed.

21/01/2021 - 13:24:03 - download finished. is took 0 hours, 2 minutes and 0 seconds

21/01/2021 - 13:27:34 - AutomaticDisconnect started a new log file.

21/01/2021 - 13:27:48 - The system was opened

21/01/2021 - 13:27:48 - RF indicator was opened

21/01/2021 - 13:28:41 - The system was in download mode. The system was not closed.

21/01/2021 - 13:30:20 - AutomaticDisconnect started a new log file.

21/01/2021 - 13:30:26 - The system was opened

21/01/2021 - 13:30:26 - RF indicator was opened

21/01/2021 - 13:30:41 - The system was in download mode. The system was not closed.

21/01/2021 - 13:31:13 - download finished. is took 0 hours, 2 minutes and 0 seconds

21/01/2021 - 13:34:14 - AutomaticDisconnect started a new log file.

21/01/2021 - 13:34:18 - The system was opened

21/01/2021 - 13:34:18 - RF indicator was opened

21/01/2021 - 13:34:23 - The system was in download mode. The system was not closed.

21/01/2021 - 13:35:07 - download finished. is took 0 hours, 2 minutes and 0 seconds

21/01/2021 - 13:36:39 - AutomaticDisconnect started a new log file.

21/01/2021 - 13:36:39 - The system was opened

21/01/2021 - 13:36:47 - AutomaticDisconnect started a new log file.

21/01/2021 - 13:36:47 - The system was opened

21/01/2021 - 13:36:53 - RF indicator was opened

21/01/2021 - 13:36:57 - The system was in download mode. The system was not closed.

21/01/2021 - 13:37:32 - download finished. is took 0 hours, 2 minutes and 0 seconds

21/01/2021 - 13:41:13 - AutomaticDisconnect started a new log file.

21/01/2021 - 13:41:13 - The system was opened

21/01/2021 - 13:41:20 - RF indicator was opened

21/01/2021 - 13:42:58 - AutomaticDisconnect started a new log file.

21/01/2021 - 13:42:58 - The system was opened

21/01/2021 - 13:43:33 - RF indicator was opened

21/01/2021 - 13:43:57 - AutomaticDisconnect started a new log file.

21/01/2021 - 13:43:57 - The system was opened

21/01/2021 - 13:43:59 - RF indicator was opened

21/01/2021 - 13:44:22 - The system was in download mode. The system was not closed.

21/01/2021 - 13:44:55 - download finished. is took 0 hours, 2 minutes and 0 seconds

21/01/2021 - 13:47:15 - AutomaticDisconnect started a new log file.

21/01/2021 - 13:47:15 - The system was opened

21/01/2021 - 13:47:26 - RF indicator was opened

21/01/2021 - 13:47:35 - The system was in download mode. The system was not closed.

21/01/2021 - 13:48:04 - download finished. is took 0 hours, 2 minutes and 0 seconds

21/01/2021 - 13:48:17 - The system was in download mode. The system was not closed.

21/01/2021 - 13:48:54 - download finished. is took 0 hours, 2 minutes and 0 seconds

21/01/2021 - 13:49:02 - The system was in download mode. The system was not closed.

21/01/2021 - 13:49:35 - download finished. is took 0 hours, 2 minutes and 0 seconds

21/01/2021 - 13:50:37 - AutomaticDisconnect started a new log file.

21/01/2021 - 13:50:37 - The system was opened

21/01/2021 - 13:50:49 - AutomaticDisconnect started a new log file.

21/01/2021 - 13:50:49 - The system was opened

21/01/2021 - 13:50:51 - RF indicator was opened

21/01/2021 - 13:50:54 - The system was in download mode. The system was not closed.

21/01/2021 - 13:51:24 - download finished. is took 0 hours, 2 minutes and 0 seconds

21/01/2021 - 17:32:51 - AutomaticDisconnect started a new log file.

21/01/2021 - 17:32:51 - The system was opened

21/01/2021 - 17:33:23 - RF indicator was opened

21/01/2021 - 17:33:32 - The system was in download mode. The system was not closed.

21/01/2021 - 17:33:38 - Execption: System.InvalidOperationException

21/01/2021 - 17:33:38 - 	 Execption's Source: System.Core

21/01/2021 - 17:33:38 - 	 Execption's StackTrace:    at System.Linq.Enumerable.Last[TSource](IEnumerable`1 source)
   at IndigmaAutomaticDisconnect.Modes.DownloadMode.CheckMode() in C:\Users\Administrator\Desktop\IndigmaAutomaticDisconnect1.3.5\IndigmaAutomaticDisconnect\Modes\DownloadMode.cs:line 29
   at IndigmaAutomaticDisconnect.Modes.AIndigmaModeWithChecking.CheckLine(String line) in C:\Users\Administrator\Desktop\IndigmaAutomaticDisconnect1.3.5\IndigmaAutomaticDisconnect\Modes\AIndigmaModeWithChecking.cs:line 23
   at IndigmaAutomaticDisconnect.Program.TestIfModesActive(List`1 modesList, String line) in C:\Users\Administrator\Desktop\IndigmaAutomaticDisconnect1.3.5\IndigmaAutomaticDisconnect\Program.cs:line 270
   at IndigmaAutomaticDisconnect.Program.Main(String[] args) in C:\Users\Administrator\Desktop\IndigmaAutomaticDisconnect1.3.5\IndigmaAutomaticDisconnect\Program.cs:line 147

21/01/2021 - 17:33:38 - 	 Execption's Data: System.Collections.ListDictionaryInternal

21/01/2021 - 17:33:38 - 	 Execption's Message: Sequence contains no elements

21/01/2021 - 17:33:38 - 	 Execption's InnerException: 

21/01/2021 - 17:34:00 - AutomaticDisconnect started a new log file.

21/01/2021 - 17:34:00 - The system was opened

21/01/2021 - 17:34:11 - RF indicator was opened

21/01/2021 - 17:34:28 - The system was in download mode. The system was not closed.

21/01/2021 - 17:35:04 - AutomaticDisconnect started a new log file.

21/01/2021 - 17:35:04 - The system was opened

21/01/2021 - 17:35:15 - RF indicator was opened

21/01/2021 - 17:36:30 - The system was in download mode. The system was not closed.

21/01/2021 - 17:37:19 - Execption: System.InvalidOperationException

21/01/2021 - 17:38:15 - AutomaticDisconnect started a new log file.

21/01/2021 - 17:38:15 - The system was opened

21/01/2021 - 17:38:24 - RF indicator was opened

21/01/2021 - 17:38:32 - The system was in download mode. The system was not closed.

21/01/2021 - 17:40:05 - AutomaticDisconnect started a new log file.

21/01/2021 - 17:40:05 - The system was opened

21/01/2021 - 17:40:13 - RF indicator was opened

21/01/2021 - 17:40:14 - The system was in download mode. The system was not closed.

21/01/2021 - 17:41:13 - AutomaticDisconnect started a new log file.

21/01/2021 - 17:41:21 - The system was opened

21/01/2021 - 17:41:21 - RF indicator was opened

21/01/2021 - 17:41:23 - The system was in download mode. The system was not closed.

21/01/2021 - 17:41:46 - AutomaticDisconnect started a new log file.

21/01/2021 - 17:41:46 - The system was opened

21/01/2021 - 17:41:46 - RF indicator was opened

21/01/2021 - 17:41:48 - The system was in download mode. The system was not closed.

